^sprite_ps.hlsl
^sprite_vs.hlsl
D:\描画エンジンプログラムⅠ\3dgp.00\sprite_ps.cso
D:\描画エンジンプログラムⅠ\3dgp.00\sprite_vs.cso
D:\描画エンジンプログラムⅠ\3dgp.00\sprite_ps.cod
D:\描画エンジンプログラムⅠ\3dgp.00\sprite_vs.cod
^sprite_ps.hlsl
^sprite_vs.hlsl
D:\描画エンジンプログラムⅠ\3dgp.00\sprite_ps.cso
D:\描画エンジンプログラムⅠ\3dgp.00\sprite_vs.cso
D:\描画エンジンプログラムⅠ\3dgp.00\sprite_ps.cod
D:\描画エンジンプログラムⅠ\3dgp.00\sprite_vs.cod
^sprite_ps.hlsl
^sprite_vs.hlsl
D:\描画エンジンプログラムⅠ\3dgp.00\sprite_ps.cso
D:\描画エンジンプログラムⅠ\3dgp.00\sprite_vs.cso
D:\描画エンジンプログラムⅠ\3dgp.00\sprite_ps.cod
D:\描画エンジンプログラムⅠ\3dgp.00\sprite_vs.cod
^sprite_ps.hlsl
^sprite_vs.hlsl
D:\描画エンジンプログラムⅠ\3dgp.00\sprite_ps.cso
D:\描画エンジンプログラムⅠ\3dgp.00\sprite_vs.cso
D:\描画エンジンプログラムⅠ\3dgp.00\sprite_ps.cod
D:\描画エンジンプログラムⅠ\3dgp.00\sprite_vs.cod
^sprite_ps.hlsl
^sprite_vs.hlsl
D:\描画エンジンプログラムⅠ\3dgp.00\sprite_ps.cso
D:\描画エンジンプログラムⅠ\3dgp.00\sprite_vs.cso
D:\描画エンジンプログラムⅠ\3dgp.00\sprite_ps.cod
D:\描画エンジンプログラムⅠ\3dgp.00\sprite_vs.cod
^sprite_ps.hlsl
^sprite_vs.hlsl
D:\描画エンジンプログラムⅠ\3dgp.00\sprite_ps.cso
D:\描画エンジンプログラムⅠ\3dgp.00\sprite_vs.cso
D:\描画エンジンプログラムⅠ\3dgp.00\sprite_ps.cod
D:\描画エンジンプログラムⅠ\3dgp.00\sprite_vs.cod
^sprite_ps.hlsl
^sprite_vs.hlsl
D:\描画エンジンプログラムⅠ\3dgp.00\sprite_ps.cso
D:\描画エンジンプログラムⅠ\3dgp.00\sprite_vs.cso
D:\描画エンジンプログラムⅠ\3dgp.00\sprite_ps.cod
D:\描画エンジンプログラムⅠ\3dgp.00\sprite_vs.cod
^sprite_ps.hlsl
^sprite_vs.hlsl
D:\描画エンジンプログラムⅠ\3dgp.00\sprite_ps.cso
D:\描画エンジンプログラムⅠ\3dgp.00\sprite_vs.cso
D:\描画エンジンプログラムⅠ\3dgp.00\sprite_ps.cod
D:\描画エンジンプログラムⅠ\3dgp.00\sprite_vs.cod
^sprite_ps.hlsl
^sprite_vs.hlsl
D:\描画エンジンプログラムⅠ\3dgp.00\sprite_ps.cso
D:\描画エンジンプログラムⅠ\3dgp.00\sprite_vs.cso
D:\描画エンジンプログラムⅠ\3dgp.00\sprite_ps.cod
D:\描画エンジンプログラムⅠ\3dgp.00\sprite_vs.cod
^sprite_ps.hlsl
^sprite_vs.hlsl
D:\描画エンジンプログラムⅠ\3dgp.00\sprite_ps.cso
D:\描画エンジンプログラムⅠ\3dgp.00\sprite_vs.cso
D:\描画エンジンプログラムⅠ\3dgp.00\sprite_ps.cod
D:\描画エンジンプログラムⅠ\3dgp.00\sprite_vs.cod
^sprite_ps.hlsl
^sprite_vs.hlsl
D:\描画エンジンプログラムⅠ\3dgp.00\sprite_ps.cso
D:\描画エンジンプログラムⅠ\3dgp.00\sprite_vs.cso
D:\描画エンジンプログラムⅠ\3dgp.00\sprite_ps.cod
D:\描画エンジンプログラムⅠ\3dgp.00\sprite_vs.cod
^sprite_ps.hlsl
^sprite_vs.hlsl
D:\描画エンジンプログラムⅠ\3dgp.00\sprite_ps.cso
D:\描画エンジンプログラムⅠ\3dgp.00\sprite_vs.cso
D:\描画エンジンプログラムⅠ\3dgp.00\sprite_ps.cod
D:\描画エンジンプログラムⅠ\3dgp.00\sprite_vs.cod
^geometric_primitive_ps.hlsl
^geometric_primitive_vs.hlsl
^skinned_mesh_ps.hlsl
^skinned_mesh_vs.hlsl
^sprite_ps.hlsl
^sprite_vs.hlsl
^static_mesh_ps.hlsl
^static_mesh_vs.hlsl
D:\描画エンジンプログラムⅠ\3dgp.00\geometric_primitive_ps.cso
D:\描画エンジンプログラムⅠ\3dgp.00\geometric_primitive_vs.cso
D:\描画エンジンプログラムⅠ\3dgp.00\skinned_mesh_ps.cso
D:\描画エンジンプログラムⅠ\3dgp.00\skinned_mesh_vs.cso
D:\描画エンジンプログラムⅠ\3dgp.00\sprite_ps.cso
D:\描画エンジンプログラムⅠ\3dgp.00\sprite_vs.cso
D:\描画エンジンプログラムⅠ\3dgp.00\static_mesh_ps.cso
D:\描画エンジンプログラムⅠ\3dgp.00\static_mesh_vs.cso
D:\描画エンジンプログラムⅠ\3dgp.00\geometric_primitive_ps.cod
D:\描画エンジンプログラムⅠ\3dgp.00\geometric_primitive_vs.cod
D:\描画エンジンプログラムⅠ\3dgp.00\skinned_mesh_ps.cod
D:\描画エンジンプログラムⅠ\3dgp.00\skinned_mesh_vs.cod
D:\描画エンジンプログラムⅠ\3dgp.00\sprite_ps.cod
D:\描画エンジンプログラムⅠ\3dgp.00\sprite_vs.cod
D:\描画エンジンプログラムⅠ\3dgp.00\static_mesh_ps.cod
D:\描画エンジンプログラムⅠ\3dgp.00\static_mesh_vs.cod
^geometric_primitive_ps.hlsl
^geometric_primitive_vs.hlsl
^skinned_mesh_ps.hlsl
^skinned_mesh_vs.hlsl
^sprite_ps.hlsl
^sprite_vs.hlsl
^static_mesh_ps.hlsl
^static_mesh_vs.hlsl
D:\描画エンジンプログラムⅠ\3dgp.00\geometric_primitive_ps.cso
D:\描画エンジンプログラムⅠ\3dgp.00\geometric_primitive_vs.cso
D:\描画エンジンプログラムⅠ\3dgp.00\skinned_mesh_ps.cso
D:\描画エンジンプログラムⅠ\3dgp.00\skinned_mesh_vs.cso
D:\描画エンジンプログラムⅠ\3dgp.00\sprite_ps.cso
D:\描画エンジンプログラムⅠ\3dgp.00\sprite_vs.cso
D:\描画エンジンプログラムⅠ\3dgp.00\static_mesh_ps.cso
D:\描画エンジンプログラムⅠ\3dgp.00\static_mesh_vs.cso
D:\描画エンジンプログラムⅠ\3dgp.00\geometric_primitive_ps.cod
D:\描画エンジンプログラムⅠ\3dgp.00\geometric_primitive_vs.cod
D:\描画エンジンプログラムⅠ\3dgp.00\skinned_mesh_ps.cod
D:\描画エンジンプログラムⅠ\3dgp.00\skinned_mesh_vs.cod
D:\描画エンジンプログラムⅠ\3dgp.00\sprite_ps.cod
D:\描画エンジンプログラムⅠ\3dgp.00\sprite_vs.cod
D:\描画エンジンプログラムⅠ\3dgp.00\static_mesh_ps.cod
D:\描画エンジンプログラムⅠ\3dgp.00\static_mesh_vs.cod
^geometric_primitive_ps.hlsl
^geometric_primitive_vs.hlsl
^skinned_mesh_ps.hlsl
^skinned_mesh_vs.hlsl
^sprite_ps.hlsl
^sprite_vs.hlsl
^static_mesh_ps.hlsl
^static_mesh_vs.hlsl
D:\描画エンジンプログラムⅠ\3dgp.00\geometric_primitive_ps.cso
D:\描画エンジンプログラムⅠ\3dgp.00\geometric_primitive_vs.cso
D:\描画エンジンプログラムⅠ\3dgp.00\skinned_mesh_ps.cso
D:\描画エンジンプログラムⅠ\3dgp.00\skinned_mesh_vs.cso
D:\描画エンジンプログラムⅠ\3dgp.00\sprite_ps.cso
D:\描画エンジンプログラムⅠ\3dgp.00\sprite_vs.cso
D:\描画エンジンプログラムⅠ\3dgp.00\static_mesh_ps.cso
D:\描画エンジンプログラムⅠ\3dgp.00\static_mesh_vs.cso
D:\描画エンジンプログラムⅠ\3dgp.00\geometric_primitive_ps.cod
D:\描画エンジンプログラムⅠ\3dgp.00\geometric_primitive_vs.cod
D:\描画エンジンプログラムⅠ\3dgp.00\skinned_mesh_ps.cod
D:\描画エンジンプログラムⅠ\3dgp.00\skinned_mesh_vs.cod
D:\描画エンジンプログラムⅠ\3dgp.00\sprite_ps.cod
D:\描画エンジンプログラムⅠ\3dgp.00\sprite_vs.cod
D:\描画エンジンプログラムⅠ\3dgp.00\static_mesh_ps.cod
D:\描画エンジンプログラムⅠ\3dgp.00\static_mesh_vs.cod
^geometric_primitive_ps.hlsl
^geometric_primitive_vs.hlsl
^skinned_mesh_ps.hlsl
^skinned_mesh_vs.hlsl
^sprite_ps.hlsl
^sprite_vs.hlsl
^static_mesh_ps.hlsl
^static_mesh_vs.hlsl
D:\描画エンジンプログラムⅠ\3dgp.00\geometric_primitive_ps.cso
D:\描画エンジンプログラムⅠ\3dgp.00\geometric_primitive_vs.cso
D:\描画エンジンプログラムⅠ\3dgp.00\skinned_mesh_ps.cso
D:\描画エンジンプログラムⅠ\3dgp.00\skinned_mesh_vs.cso
D:\描画エンジンプログラムⅠ\3dgp.00\sprite_ps.cso
D:\描画エンジンプログラムⅠ\3dgp.00\sprite_vs.cso
D:\描画エンジンプログラムⅠ\3dgp.00\static_mesh_ps.cso
D:\描画エンジンプログラムⅠ\3dgp.00\static_mesh_vs.cso
D:\描画エンジンプログラムⅠ\3dgp.00\geometric_primitive_ps.cod
D:\描画エンジンプログラムⅠ\3dgp.00\geometric_primitive_vs.cod
D:\描画エンジンプログラムⅠ\3dgp.00\skinned_mesh_ps.cod
D:\描画エンジンプログラムⅠ\3dgp.00\skinned_mesh_vs.cod
D:\描画エンジンプログラムⅠ\3dgp.00\sprite_ps.cod
D:\描画エンジンプログラムⅠ\3dgp.00\sprite_vs.cod
D:\描画エンジンプログラムⅠ\3dgp.00\static_mesh_ps.cod
D:\描画エンジンプログラムⅠ\3dgp.00\static_mesh_vs.cod
^geometric_primitive_ps.hlsl
^geometric_primitive_vs.hlsl
^skinned_mesh_ps.hlsl
^skinned_mesh_vs.hlsl
^sprite_ps.hlsl
^sprite_vs.hlsl
^static_mesh_ps.hlsl
^static_mesh_vs.hlsl
D:\描画エンジンプログラムⅠ\3dgp.00\geometric_primitive_ps.cso
D:\描画エンジンプログラムⅠ\3dgp.00\geometric_primitive_vs.cso
D:\描画エンジンプログラムⅠ\3dgp.00\skinned_mesh_ps.cso
D:\描画エンジンプログラムⅠ\3dgp.00\skinned_mesh_vs.cso
D:\描画エンジンプログラムⅠ\3dgp.00\sprite_ps.cso
D:\描画エンジンプログラムⅠ\3dgp.00\sprite_vs.cso
D:\描画エンジンプログラムⅠ\3dgp.00\static_mesh_ps.cso
D:\描画エンジンプログラムⅠ\3dgp.00\static_mesh_vs.cso
D:\描画エンジンプログラムⅠ\3dgp.00\geometric_primitive_ps.cod
D:\描画エンジンプログラムⅠ\3dgp.00\geometric_primitive_vs.cod
D:\描画エンジンプログラムⅠ\3dgp.00\skinned_mesh_ps.cod
D:\描画エンジンプログラムⅠ\3dgp.00\skinned_mesh_vs.cod
D:\描画エンジンプログラムⅠ\3dgp.00\sprite_ps.cod
D:\描画エンジンプログラムⅠ\3dgp.00\sprite_vs.cod
D:\描画エンジンプログラムⅠ\3dgp.00\static_mesh_ps.cod
D:\描画エンジンプログラムⅠ\3dgp.00\static_mesh_vs.cod
^geometric_primitive_ps.hlsl
^geometric_primitive_vs.hlsl
^skinned_mesh_ps.hlsl
^skinned_mesh_vs.hlsl
^sprite_ps.hlsl
^sprite_vs.hlsl
^static_mesh_ps.hlsl
^static_mesh_vs.hlsl
D:\描画エンジンプログラムⅠ\3dgp.00\geometric_primitive_ps.cso
D:\描画エンジンプログラムⅠ\3dgp.00\geometric_primitive_vs.cso
D:\描画エンジンプログラムⅠ\3dgp.00\skinned_mesh_ps.cso
D:\描画エンジンプログラムⅠ\3dgp.00\skinned_mesh_vs.cso
D:\描画エンジンプログラムⅠ\3dgp.00\sprite_ps.cso
D:\描画エンジンプログラムⅠ\3dgp.00\sprite_vs.cso
D:\描画エンジンプログラムⅠ\3dgp.00\static_mesh_ps.cso
D:\描画エンジンプログラムⅠ\3dgp.00\static_mesh_vs.cso
D:\描画エンジンプログラムⅠ\3dgp.00\geometric_primitive_ps.cod
D:\描画エンジンプログラムⅠ\3dgp.00\geometric_primitive_vs.cod
D:\描画エンジンプログラムⅠ\3dgp.00\skinned_mesh_ps.cod
D:\描画エンジンプログラムⅠ\3dgp.00\skinned_mesh_vs.cod
D:\描画エンジンプログラムⅠ\3dgp.00\sprite_ps.cod
D:\描画エンジンプログラムⅠ\3dgp.00\sprite_vs.cod
D:\描画エンジンプログラムⅠ\3dgp.00\static_mesh_ps.cod
D:\描画エンジンプログラムⅠ\3dgp.00\static_mesh_vs.cod
^geometric_primitive_ps.hlsl
^geometric_primitive_vs.hlsl
^skinned_mesh_ps.hlsl
^skinned_mesh_vs.hlsl
^sprite_ps.hlsl
^sprite_vs.hlsl
^static_mesh_ps.hlsl
^static_mesh_vs.hlsl
D:\描画エンジンプログラムⅠ\3dgp.00\geometric_primitive_ps.cso
D:\描画エンジンプログラムⅠ\3dgp.00\geometric_primitive_vs.cso
D:\描画エンジンプログラムⅠ\3dgp.00\skinned_mesh_ps.cso
D:\描画エンジンプログラムⅠ\3dgp.00\skinned_mesh_vs.cso
D:\描画エンジンプログラムⅠ\3dgp.00\sprite_ps.cso
D:\描画エンジンプログラムⅠ\3dgp.00\sprite_vs.cso
D:\描画エンジンプログラムⅠ\3dgp.00\static_mesh_ps.cso
D:\描画エンジンプログラムⅠ\3dgp.00\static_mesh_vs.cso
D:\描画エンジンプログラムⅠ\3dgp.00\geometric_primitive_ps.cod
D:\描画エンジンプログラムⅠ\3dgp.00\geometric_primitive_vs.cod
D:\描画エンジンプログラムⅠ\3dgp.00\skinned_mesh_ps.cod
D:\描画エンジンプログラムⅠ\3dgp.00\skinned_mesh_vs.cod
D:\描画エンジンプログラムⅠ\3dgp.00\sprite_ps.cod
D:\描画エンジンプログラムⅠ\3dgp.00\sprite_vs.cod
D:\描画エンジンプログラムⅠ\3dgp.00\static_mesh_ps.cod
D:\描画エンジンプログラムⅠ\3dgp.00\static_mesh_vs.cod
^geometric_primitive_ps.hlsl
^geometric_primitive_vs.hlsl
^skinned_mesh_ps.hlsl
^skinned_mesh_vs.hlsl
^sprite_ps.hlsl
^sprite_vs.hlsl
^static_mesh_ps.hlsl
^static_mesh_vs.hlsl
D:\描画エンジンプログラムⅠ\3dgp.00\geometric_primitive_ps.cso
D:\描画エンジンプログラムⅠ\3dgp.00\geometric_primitive_vs.cso
D:\描画エンジンプログラムⅠ\3dgp.00\skinned_mesh_ps.cso
D:\描画エンジンプログラムⅠ\3dgp.00\skinned_mesh_vs.cso
D:\描画エンジンプログラムⅠ\3dgp.00\sprite_ps.cso
D:\描画エンジンプログラムⅠ\3dgp.00\sprite_vs.cso
D:\描画エンジンプログラムⅠ\3dgp.00\static_mesh_ps.cso
D:\描画エンジンプログラムⅠ\3dgp.00\static_mesh_vs.cso
D:\描画エンジンプログラムⅠ\3dgp.00\geometric_primitive_ps.cod
D:\描画エンジンプログラムⅠ\3dgp.00\geometric_primitive_vs.cod
D:\描画エンジンプログラムⅠ\3dgp.00\skinned_mesh_ps.cod
D:\描画エンジンプログラムⅠ\3dgp.00\skinned_mesh_vs.cod
D:\描画エンジンプログラムⅠ\3dgp.00\sprite_ps.cod
D:\描画エンジンプログラムⅠ\3dgp.00\sprite_vs.cod
D:\描画エンジンプログラムⅠ\3dgp.00\static_mesh_ps.cod
D:\描画エンジンプログラムⅠ\3dgp.00\static_mesh_vs.cod
^geometric_primitive_ps.hlsl
^geometric_primitive_vs.hlsl
^skinned_mesh_ps.hlsl
^skinned_mesh_vs.hlsl
^sprite_ps.hlsl
^sprite_vs.hlsl
^static_mesh_ps.hlsl
^static_mesh_vs.hlsl
D:\描画エンジンプログラムⅠ\3dgp.00\geometric_primitive_ps.cso
D:\描画エンジンプログラムⅠ\3dgp.00\geometric_primitive_vs.cso
D:\描画エンジンプログラムⅠ\3dgp.00\skinned_mesh_ps.cso
D:\描画エンジンプログラムⅠ\3dgp.00\skinned_mesh_vs.cso
D:\描画エンジンプログラムⅠ\3dgp.00\sprite_ps.cso
D:\描画エンジンプログラムⅠ\3dgp.00\sprite_vs.cso
D:\描画エンジンプログラムⅠ\3dgp.00\static_mesh_ps.cso
D:\描画エンジンプログラムⅠ\3dgp.00\static_mesh_vs.cso
D:\描画エンジンプログラムⅠ\3dgp.00\geometric_primitive_ps.cod
D:\描画エンジンプログラムⅠ\3dgp.00\geometric_primitive_vs.cod
D:\描画エンジンプログラムⅠ\3dgp.00\skinned_mesh_ps.cod
D:\描画エンジンプログラムⅠ\3dgp.00\skinned_mesh_vs.cod
D:\描画エンジンプログラムⅠ\3dgp.00\sprite_ps.cod
D:\描画エンジンプログラムⅠ\3dgp.00\sprite_vs.cod
D:\描画エンジンプログラムⅠ\3dgp.00\static_mesh_ps.cod
D:\描画エンジンプログラムⅠ\3dgp.00\static_mesh_vs.cod
^geometric_primitive_ps.hlsl
^geometric_primitive_vs.hlsl
^skinned_mesh_ps.hlsl
^skinned_mesh_vs.hlsl
^sprite_ps.hlsl
^sprite_vs.hlsl
^static_mesh_ps.hlsl
^static_mesh_vs.hlsl
D:\描画エンジンプログラムⅠ\3dgp.00\geometric_primitive_ps.cso
D:\描画エンジンプログラムⅠ\3dgp.00\geometric_primitive_vs.cso
D:\描画エンジンプログラムⅠ\3dgp.00\skinned_mesh_ps.cso
D:\描画エンジンプログラムⅠ\3dgp.00\skinned_mesh_vs.cso
D:\描画エンジンプログラムⅠ\3dgp.00\sprite_ps.cso
D:\描画エンジンプログラムⅠ\3dgp.00\sprite_vs.cso
D:\描画エンジンプログラムⅠ\3dgp.00\static_mesh_ps.cso
D:\描画エンジンプログラムⅠ\3dgp.00\static_mesh_vs.cso
D:\描画エンジンプログラムⅠ\3dgp.00\geometric_primitive_ps.cod
D:\描画エンジンプログラムⅠ\3dgp.00\geometric_primitive_vs.cod
D:\描画エンジンプログラムⅠ\3dgp.00\skinned_mesh_ps.cod
D:\描画エンジンプログラムⅠ\3dgp.00\skinned_mesh_vs.cod
D:\描画エンジンプログラムⅠ\3dgp.00\sprite_ps.cod
D:\描画エンジンプログラムⅠ\3dgp.00\sprite_vs.cod
D:\描画エンジンプログラムⅠ\3dgp.00\static_mesh_ps.cod
D:\描画エンジンプログラムⅠ\3dgp.00\static_mesh_vs.cod
^geometric_primitive_ps.hlsl
^geometric_primitive_vs.hlsl
^skinned_mesh_ps.hlsl
^skinned_mesh_vs.hlsl
^sprite_ps.hlsl
^sprite_vs.hlsl
^static_mesh_ps.hlsl
^static_mesh_vs.hlsl
D:\描画エンジンプログラムⅠ\3dgp.00\geometric_primitive_ps.cso
D:\描画エンジンプログラムⅠ\3dgp.00\geometric_primitive_vs.cso
D:\描画エンジンプログラムⅠ\3dgp.00\skinned_mesh_ps.cso
D:\描画エンジンプログラムⅠ\3dgp.00\skinned_mesh_vs.cso
D:\描画エンジンプログラムⅠ\3dgp.00\sprite_ps.cso
D:\描画エンジンプログラムⅠ\3dgp.00\sprite_vs.cso
D:\描画エンジンプログラムⅠ\3dgp.00\static_mesh_ps.cso
D:\描画エンジンプログラムⅠ\3dgp.00\static_mesh_vs.cso
D:\描画エンジンプログラムⅠ\3dgp.00\geometric_primitive_ps.cod
D:\描画エンジンプログラムⅠ\3dgp.00\geometric_primitive_vs.cod
D:\描画エンジンプログラムⅠ\3dgp.00\skinned_mesh_ps.cod
D:\描画エンジンプログラムⅠ\3dgp.00\skinned_mesh_vs.cod
D:\描画エンジンプログラムⅠ\3dgp.00\sprite_ps.cod
D:\描画エンジンプログラムⅠ\3dgp.00\sprite_vs.cod
D:\描画エンジンプログラムⅠ\3dgp.00\static_mesh_ps.cod
D:\描画エンジンプログラムⅠ\3dgp.00\static_mesh_vs.cod
^geometric_primitive_ps.hlsl
^geometric_primitive_vs.hlsl
^skinned_mesh_ps.hlsl
^skinned_mesh_vs.hlsl
^sprite_ps.hlsl
^sprite_vs.hlsl
^static_mesh_ps.hlsl
^static_mesh_vs.hlsl
D:\描画エンジンプログラムⅠ\3dgp.00\geometric_primitive_ps.cso
D:\描画エンジンプログラムⅠ\3dgp.00\geometric_primitive_vs.cso
D:\描画エンジンプログラムⅠ\3dgp.00\skinned_mesh_ps.cso
D:\描画エンジンプログラムⅠ\3dgp.00\skinned_mesh_vs.cso
D:\描画エンジンプログラムⅠ\3dgp.00\sprite_ps.cso
D:\描画エンジンプログラムⅠ\3dgp.00\sprite_vs.cso
D:\描画エンジンプログラムⅠ\3dgp.00\static_mesh_ps.cso
D:\描画エンジンプログラムⅠ\3dgp.00\static_mesh_vs.cso
D:\描画エンジンプログラムⅠ\3dgp.00\geometric_primitive_ps.cod
D:\描画エンジンプログラムⅠ\3dgp.00\geometric_primitive_vs.cod
D:\描画エンジンプログラムⅠ\3dgp.00\skinned_mesh_ps.cod
D:\描画エンジンプログラムⅠ\3dgp.00\skinned_mesh_vs.cod
D:\描画エンジンプログラムⅠ\3dgp.00\sprite_ps.cod
D:\描画エンジンプログラムⅠ\3dgp.00\sprite_vs.cod
D:\描画エンジンプログラムⅠ\3dgp.00\static_mesh_ps.cod
D:\描画エンジンプログラムⅠ\3dgp.00\static_mesh_vs.cod
^geometric_primitive_ps.hlsl
^geometric_primitive_vs.hlsl
^skinned_mesh_ps.hlsl
^skinned_mesh_vs.hlsl
^sprite_ps.hlsl
^sprite_vs.hlsl
^static_mesh_ps.hlsl
^static_mesh_vs.hlsl
D:\描画エンジンプログラムⅠ\3dgp.00\geometric_primitive_ps.cso
D:\描画エンジンプログラムⅠ\3dgp.00\geometric_primitive_vs.cso
D:\描画エンジンプログラムⅠ\3dgp.00\skinned_mesh_ps.cso
D:\描画エンジンプログラムⅠ\3dgp.00\skinned_mesh_vs.cso
D:\描画エンジンプログラムⅠ\3dgp.00\sprite_ps.cso
D:\描画エンジンプログラムⅠ\3dgp.00\sprite_vs.cso
D:\描画エンジンプログラムⅠ\3dgp.00\static_mesh_ps.cso
D:\描画エンジンプログラムⅠ\3dgp.00\static_mesh_vs.cso
D:\描画エンジンプログラムⅠ\3dgp.00\geometric_primitive_ps.cod
D:\描画エンジンプログラムⅠ\3dgp.00\geometric_primitive_vs.cod
D:\描画エンジンプログラムⅠ\3dgp.00\skinned_mesh_ps.cod
D:\描画エンジンプログラムⅠ\3dgp.00\skinned_mesh_vs.cod
D:\描画エンジンプログラムⅠ\3dgp.00\sprite_ps.cod
D:\描画エンジンプログラムⅠ\3dgp.00\sprite_vs.cod
D:\描画エンジンプログラムⅠ\3dgp.00\static_mesh_ps.cod
D:\描画エンジンプログラムⅠ\3dgp.00\static_mesh_vs.cod
^geometric_primitive_ps.hlsl
^geometric_primitive_vs.hlsl
^skinned_mesh_ps.hlsl
^skinned_mesh_vs.hlsl
^sprite_ps.hlsl
^sprite_vs.hlsl
^static_mesh_ps.hlsl
^static_mesh_vs.hlsl
D:\描画エンジンプログラムⅠ\3dgp.00\geometric_primitive_ps.cso
D:\描画エンジンプログラムⅠ\3dgp.00\geometric_primitive_vs.cso
D:\描画エンジンプログラムⅠ\3dgp.00\skinned_mesh_ps.cso
D:\描画エンジンプログラムⅠ\3dgp.00\skinned_mesh_vs.cso
D:\描画エンジンプログラムⅠ\3dgp.00\sprite_ps.cso
D:\描画エンジンプログラムⅠ\3dgp.00\sprite_vs.cso
D:\描画エンジンプログラムⅠ\3dgp.00\static_mesh_ps.cso
D:\描画エンジンプログラムⅠ\3dgp.00\static_mesh_vs.cso
D:\描画エンジンプログラムⅠ\3dgp.00\geometric_primitive_ps.cod
D:\描画エンジンプログラムⅠ\3dgp.00\geometric_primitive_vs.cod
D:\描画エンジンプログラムⅠ\3dgp.00\skinned_mesh_ps.cod
D:\描画エンジンプログラムⅠ\3dgp.00\skinned_mesh_vs.cod
D:\描画エンジンプログラムⅠ\3dgp.00\sprite_ps.cod
D:\描画エンジンプログラムⅠ\3dgp.00\sprite_vs.cod
D:\描画エンジンプログラムⅠ\3dgp.00\static_mesh_ps.cod
D:\描画エンジンプログラムⅠ\3dgp.00\static_mesh_vs.cod
^geometric_primitive_ps.hlsl
^geometric_primitive_vs.hlsl
^skinned_mesh_ps.hlsl
^skinned_mesh_vs.hlsl
^sprite_ps.hlsl
^sprite_vs.hlsl
^static_mesh_ps.hlsl
^static_mesh_vs.hlsl
D:\描画エンジンプログラムⅠ\3dgp.00\geometric_primitive_ps.cso
D:\描画エンジンプログラムⅠ\3dgp.00\geometric_primitive_vs.cso
D:\描画エンジンプログラムⅠ\3dgp.00\skinned_mesh_ps.cso
D:\描画エンジンプログラムⅠ\3dgp.00\skinned_mesh_vs.cso
D:\描画エンジンプログラムⅠ\3dgp.00\sprite_ps.cso
D:\描画エンジンプログラムⅠ\3dgp.00\sprite_vs.cso
D:\描画エンジンプログラムⅠ\3dgp.00\static_mesh_ps.cso
D:\描画エンジンプログラムⅠ\3dgp.00\static_mesh_vs.cso
D:\描画エンジンプログラムⅠ\3dgp.00\geometric_primitive_ps.cod
D:\描画エンジンプログラムⅠ\3dgp.00\geometric_primitive_vs.cod
D:\描画エンジンプログラムⅠ\3dgp.00\skinned_mesh_ps.cod
D:\描画エンジンプログラムⅠ\3dgp.00\skinned_mesh_vs.cod
D:\描画エンジンプログラムⅠ\3dgp.00\sprite_ps.cod
D:\描画エンジンプログラムⅠ\3dgp.00\sprite_vs.cod
D:\描画エンジンプログラムⅠ\3dgp.00\static_mesh_ps.cod
D:\描画エンジンプログラムⅠ\3dgp.00\static_mesh_vs.cod
^geometric_primitive_ps.hlsl
^geometric_primitive_vs.hlsl
^skinned_mesh_ps.hlsl
^skinned_mesh_vs.hlsl
^sprite_ps.hlsl
^sprite_vs.hlsl
^static_mesh_ps.hlsl
^static_mesh_vs.hlsl
D:\描画エンジンプログラムⅠ\3dgp.00\geometric_primitive_ps.cso
D:\描画エンジンプログラムⅠ\3dgp.00\geometric_primitive_vs.cso
D:\描画エンジンプログラムⅠ\3dgp.00\skinned_mesh_ps.cso
D:\描画エンジンプログラムⅠ\3dgp.00\skinned_mesh_vs.cso
D:\描画エンジンプログラムⅠ\3dgp.00\sprite_ps.cso
D:\描画エンジンプログラムⅠ\3dgp.00\sprite_vs.cso
D:\描画エンジンプログラムⅠ\3dgp.00\static_mesh_ps.cso
D:\描画エンジンプログラムⅠ\3dgp.00\static_mesh_vs.cso
D:\描画エンジンプログラムⅠ\3dgp.00\geometric_primitive_ps.cod
D:\描画エンジンプログラムⅠ\3dgp.00\geometric_primitive_vs.cod
D:\描画エンジンプログラムⅠ\3dgp.00\skinned_mesh_ps.cod
D:\描画エンジンプログラムⅠ\3dgp.00\skinned_mesh_vs.cod
D:\描画エンジンプログラムⅠ\3dgp.00\sprite_ps.cod
D:\描画エンジンプログラムⅠ\3dgp.00\sprite_vs.cod
D:\描画エンジンプログラムⅠ\3dgp.00\static_mesh_ps.cod
D:\描画エンジンプログラムⅠ\3dgp.00\static_mesh_vs.cod
^geometric_primitive_ps.hlsl
^geometric_primitive_vs.hlsl
^skinned_mesh_ps.hlsl
^skinned_mesh_vs.hlsl
^sprite_ps.hlsl
^sprite_vs.hlsl
^static_mesh_ps.hlsl
^static_mesh_vs.hlsl
D:\描画エンジンプログラムⅠ\3dgp.00\geometric_primitive_ps.cso
D:\描画エンジンプログラムⅠ\3dgp.00\geometric_primitive_vs.cso
D:\描画エンジンプログラムⅠ\3dgp.00\skinned_mesh_ps.cso
D:\描画エンジンプログラムⅠ\3dgp.00\skinned_mesh_vs.cso
D:\描画エンジンプログラムⅠ\3dgp.00\sprite_ps.cso
D:\描画エンジンプログラムⅠ\3dgp.00\sprite_vs.cso
D:\描画エンジンプログラムⅠ\3dgp.00\static_mesh_ps.cso
D:\描画エンジンプログラムⅠ\3dgp.00\static_mesh_vs.cso
D:\描画エンジンプログラムⅠ\3dgp.00\geometric_primitive_ps.cod
D:\描画エンジンプログラムⅠ\3dgp.00\geometric_primitive_vs.cod
D:\描画エンジンプログラムⅠ\3dgp.00\skinned_mesh_ps.cod
D:\描画エンジンプログラムⅠ\3dgp.00\skinned_mesh_vs.cod
D:\描画エンジンプログラムⅠ\3dgp.00\sprite_ps.cod
D:\描画エンジンプログラムⅠ\3dgp.00\sprite_vs.cod
D:\描画エンジンプログラムⅠ\3dgp.00\static_mesh_ps.cod
D:\描画エンジンプログラムⅠ\3dgp.00\static_mesh_vs.cod
^geometric_primitive_ps.hlsl
^geometric_primitive_vs.hlsl
^skinned_mesh_ps.hlsl
^skinned_mesh_vs.hlsl
^sprite_ps.hlsl
^sprite_vs.hlsl
^static_mesh_ps.hlsl
^static_mesh_vs.hlsl
D:\描画エンジンプログラムⅠ\3dgp.00\geometric_primitive_ps.cso
D:\描画エンジンプログラムⅠ\3dgp.00\geometric_primitive_vs.cso
D:\描画エンジンプログラムⅠ\3dgp.00\skinned_mesh_ps.cso
D:\描画エンジンプログラムⅠ\3dgp.00\skinned_mesh_vs.cso
D:\描画エンジンプログラムⅠ\3dgp.00\sprite_ps.cso
D:\描画エンジンプログラムⅠ\3dgp.00\sprite_vs.cso
D:\描画エンジンプログラムⅠ\3dgp.00\static_mesh_ps.cso
D:\描画エンジンプログラムⅠ\3dgp.00\static_mesh_vs.cso
D:\描画エンジンプログラムⅠ\3dgp.00\geometric_primitive_ps.cod
D:\描画エンジンプログラムⅠ\3dgp.00\geometric_primitive_vs.cod
D:\描画エンジンプログラムⅠ\3dgp.00\skinned_mesh_ps.cod
D:\描画エンジンプログラムⅠ\3dgp.00\skinned_mesh_vs.cod
D:\描画エンジンプログラムⅠ\3dgp.00\sprite_ps.cod
D:\描画エンジンプログラムⅠ\3dgp.00\sprite_vs.cod
D:\描画エンジンプログラムⅠ\3dgp.00\static_mesh_ps.cod
D:\描画エンジンプログラムⅠ\3dgp.00\static_mesh_vs.cod
^geometric_primitive_ps.hlsl
^geometric_primitive_vs.hlsl
^skinned_mesh_ps.hlsl
^skinned_mesh_vs.hlsl
^sprite_ps.hlsl
^sprite_vs.hlsl
^static_mesh_ps.hlsl
^static_mesh_vs.hlsl
D:\描画エンジンプログラムⅠ\3dgp.00\geometric_primitive_ps.cso
D:\描画エンジンプログラムⅠ\3dgp.00\geometric_primitive_vs.cso
D:\描画エンジンプログラムⅠ\3dgp.00\skinned_mesh_ps.cso
D:\描画エンジンプログラムⅠ\3dgp.00\skinned_mesh_vs.cso
D:\描画エンジンプログラムⅠ\3dgp.00\sprite_ps.cso
D:\描画エンジンプログラムⅠ\3dgp.00\sprite_vs.cso
D:\描画エンジンプログラムⅠ\3dgp.00\static_mesh_ps.cso
D:\描画エンジンプログラムⅠ\3dgp.00\static_mesh_vs.cso
D:\描画エンジンプログラムⅠ\3dgp.00\geometric_primitive_ps.cod
D:\描画エンジンプログラムⅠ\3dgp.00\geometric_primitive_vs.cod
D:\描画エンジンプログラムⅠ\3dgp.00\skinned_mesh_ps.cod
D:\描画エンジンプログラムⅠ\3dgp.00\skinned_mesh_vs.cod
D:\描画エンジンプログラムⅠ\3dgp.00\sprite_ps.cod
D:\描画エンジンプログラムⅠ\3dgp.00\sprite_vs.cod
D:\描画エンジンプログラムⅠ\3dgp.00\static_mesh_ps.cod
D:\描画エンジンプログラムⅠ\3dgp.00\static_mesh_vs.cod
^geometric_primitive_ps.hlsl
^geometric_primitive_vs.hlsl
^skinned_mesh_ps.hlsl
^skinned_mesh_vs.hlsl
^sprite_ps.hlsl
^sprite_vs.hlsl
^static_mesh_ps.hlsl
^static_mesh_vs.hlsl
D:\描画エンジンプログラムⅠ\3dgp.00\geometric_primitive_ps.cso
D:\描画エンジンプログラムⅠ\3dgp.00\geometric_primitive_vs.cso
D:\描画エンジンプログラムⅠ\3dgp.00\skinned_mesh_ps.cso
D:\描画エンジンプログラムⅠ\3dgp.00\skinned_mesh_vs.cso
D:\描画エンジンプログラムⅠ\3dgp.00\sprite_ps.cso
D:\描画エンジンプログラムⅠ\3dgp.00\sprite_vs.cso
D:\描画エンジンプログラムⅠ\3dgp.00\static_mesh_ps.cso
D:\描画エンジンプログラムⅠ\3dgp.00\static_mesh_vs.cso
D:\描画エンジンプログラムⅠ\3dgp.00\geometric_primitive_ps.cod
D:\描画エンジンプログラムⅠ\3dgp.00\geometric_primitive_vs.cod
D:\描画エンジンプログラムⅠ\3dgp.00\skinned_mesh_ps.cod
D:\描画エンジンプログラムⅠ\3dgp.00\skinned_mesh_vs.cod
D:\描画エンジンプログラムⅠ\3dgp.00\sprite_ps.cod
D:\描画エンジンプログラムⅠ\3dgp.00\sprite_vs.cod
D:\描画エンジンプログラムⅠ\3dgp.00\static_mesh_ps.cod
D:\描画エンジンプログラムⅠ\3dgp.00\static_mesh_vs.cod
^geometric_primitive_ps.hlsl
^geometric_primitive_vs.hlsl
^skinned_mesh_ps.hlsl
^skinned_mesh_vs.hlsl
^sprite_ps.hlsl
^sprite_vs.hlsl
^static_mesh_ps.hlsl
^static_mesh_vs.hlsl
D:\描画エンジンプログラムⅠ\3dgp.00\geometric_primitive_ps.cso
D:\描画エンジンプログラムⅠ\3dgp.00\geometric_primitive_vs.cso
D:\描画エンジンプログラムⅠ\3dgp.00\skinned_mesh_ps.cso
D:\描画エンジンプログラムⅠ\3dgp.00\skinned_mesh_vs.cso
D:\描画エンジンプログラムⅠ\3dgp.00\sprite_ps.cso
D:\描画エンジンプログラムⅠ\3dgp.00\sprite_vs.cso
D:\描画エンジンプログラムⅠ\3dgp.00\static_mesh_ps.cso
D:\描画エンジンプログラムⅠ\3dgp.00\static_mesh_vs.cso
D:\描画エンジンプログラムⅠ\3dgp.00\geometric_primitive_ps.cod
D:\描画エンジンプログラムⅠ\3dgp.00\geometric_primitive_vs.cod
D:\描画エンジンプログラムⅠ\3dgp.00\skinned_mesh_ps.cod
D:\描画エンジンプログラムⅠ\3dgp.00\skinned_mesh_vs.cod
D:\描画エンジンプログラムⅠ\3dgp.00\sprite_ps.cod
D:\描画エンジンプログラムⅠ\3dgp.00\sprite_vs.cod
D:\描画エンジンプログラムⅠ\3dgp.00\static_mesh_ps.cod
D:\描画エンジンプログラムⅠ\3dgp.00\static_mesh_vs.cod
^geometric_primitive_ps.hlsl
^geometric_primitive_vs.hlsl
^skinned_mesh_ps.hlsl
^skinned_mesh_vs.hlsl
^sprite_ps.hlsl
^sprite_vs.hlsl
^static_mesh_ps.hlsl
^static_mesh_vs.hlsl
D:\描画エンジンプログラムⅠ\3dgp.00\geometric_primitive_ps.cso
D:\描画エンジンプログラムⅠ\3dgp.00\geometric_primitive_vs.cso
D:\描画エンジンプログラムⅠ\3dgp.00\skinned_mesh_ps.cso
D:\描画エンジンプログラムⅠ\3dgp.00\skinned_mesh_vs.cso
D:\描画エンジンプログラムⅠ\3dgp.00\sprite_ps.cso
D:\描画エンジンプログラムⅠ\3dgp.00\sprite_vs.cso
D:\描画エンジンプログラムⅠ\3dgp.00\static_mesh_ps.cso
D:\描画エンジンプログラムⅠ\3dgp.00\static_mesh_vs.cso
D:\描画エンジンプログラムⅠ\3dgp.00\geometric_primitive_ps.cod
D:\描画エンジンプログラムⅠ\3dgp.00\geometric_primitive_vs.cod
D:\描画エンジンプログラムⅠ\3dgp.00\skinned_mesh_ps.cod
D:\描画エンジンプログラムⅠ\3dgp.00\skinned_mesh_vs.cod
D:\描画エンジンプログラムⅠ\3dgp.00\sprite_ps.cod
D:\描画エンジンプログラムⅠ\3dgp.00\sprite_vs.cod
D:\描画エンジンプログラムⅠ\3dgp.00\static_mesh_ps.cod
D:\描画エンジンプログラムⅠ\3dgp.00\static_mesh_vs.cod
^geometric_primitive_ps.hlsl
^geometric_primitive_vs.hlsl
^skinned_mesh_ps.hlsl
^skinned_mesh_vs.hlsl
^sprite_ps.hlsl
^sprite_vs.hlsl
^static_mesh_ps.hlsl
^static_mesh_vs.hlsl
D:\描画エンジンプログラムⅠ\3dgp.00\geometric_primitive_ps.cso
D:\描画エンジンプログラムⅠ\3dgp.00\geometric_primitive_vs.cso
D:\描画エンジンプログラムⅠ\3dgp.00\skinned_mesh_ps.cso
D:\描画エンジンプログラムⅠ\3dgp.00\skinned_mesh_vs.cso
D:\描画エンジンプログラムⅠ\3dgp.00\sprite_ps.cso
D:\描画エンジンプログラムⅠ\3dgp.00\sprite_vs.cso
D:\描画エンジンプログラムⅠ\3dgp.00\static_mesh_ps.cso
D:\描画エンジンプログラムⅠ\3dgp.00\static_mesh_vs.cso
D:\描画エンジンプログラムⅠ\3dgp.00\geometric_primitive_ps.cod
D:\描画エンジンプログラムⅠ\3dgp.00\geometric_primitive_vs.cod
D:\描画エンジンプログラムⅠ\3dgp.00\skinned_mesh_ps.cod
D:\描画エンジンプログラムⅠ\3dgp.00\skinned_mesh_vs.cod
D:\描画エンジンプログラムⅠ\3dgp.00\sprite_ps.cod
D:\描画エンジンプログラムⅠ\3dgp.00\sprite_vs.cod
D:\描画エンジンプログラムⅠ\3dgp.00\static_mesh_ps.cod
D:\描画エンジンプログラムⅠ\3dgp.00\static_mesh_vs.cod
^geometric_primitive_ps.hlsl
^geometric_primitive_vs.hlsl
^skinned_mesh_ps.hlsl
^skinned_mesh_vs.hlsl
^sprite_ps.hlsl
^sprite_vs.hlsl
^static_mesh_ps.hlsl
^static_mesh_vs.hlsl
D:\描画エンジンプログラムⅠ\3dgp.00\geometric_primitive_ps.cso
D:\描画エンジンプログラムⅠ\3dgp.00\geometric_primitive_vs.cso
D:\描画エンジンプログラムⅠ\3dgp.00\skinned_mesh_ps.cso
D:\描画エンジンプログラムⅠ\3dgp.00\skinned_mesh_vs.cso
D:\描画エンジンプログラムⅠ\3dgp.00\sprite_ps.cso
D:\描画エンジンプログラムⅠ\3dgp.00\sprite_vs.cso
D:\描画エンジンプログラムⅠ\3dgp.00\static_mesh_ps.cso
D:\描画エンジンプログラムⅠ\3dgp.00\static_mesh_vs.cso
D:\描画エンジンプログラムⅠ\3dgp.00\geometric_primitive_ps.cod
D:\描画エンジンプログラムⅠ\3dgp.00\geometric_primitive_vs.cod
D:\描画エンジンプログラムⅠ\3dgp.00\skinned_mesh_ps.cod
D:\描画エンジンプログラムⅠ\3dgp.00\skinned_mesh_vs.cod
D:\描画エンジンプログラムⅠ\3dgp.00\sprite_ps.cod
D:\描画エンジンプログラムⅠ\3dgp.00\sprite_vs.cod
D:\描画エンジンプログラムⅠ\3dgp.00\static_mesh_ps.cod
D:\描画エンジンプログラムⅠ\3dgp.00\static_mesh_vs.cod
^geometric_primitive_ps.hlsl
^geometric_primitive_vs.hlsl
^skinned_mesh_ps.hlsl
^skinned_mesh_vs.hlsl
^sprite_ps.hlsl
^sprite_vs.hlsl
^static_mesh_ps.hlsl
^static_mesh_vs.hlsl
D:\チーム制作3D\2年後期1\3dgp.00\geometric_primitive_ps.cso
D:\チーム制作3D\2年後期1\3dgp.00\geometric_primitive_vs.cso
D:\チーム制作3D\2年後期1\3dgp.00\skinned_mesh_ps.cso
D:\チーム制作3D\2年後期1\3dgp.00\skinned_mesh_vs.cso
D:\チーム制作3D\2年後期1\3dgp.00\sprite_ps.cso
D:\チーム制作3D\2年後期1\3dgp.00\sprite_vs.cso
D:\チーム制作3D\2年後期1\3dgp.00\static_mesh_ps.cso
D:\チーム制作3D\2年後期1\3dgp.00\static_mesh_vs.cso
D:\チーム制作3D\2年後期1\3dgp.00\geometric_primitive_ps.cod
D:\チーム制作3D\2年後期1\3dgp.00\geometric_primitive_vs.cod
D:\チーム制作3D\2年後期1\3dgp.00\skinned_mesh_ps.cod
D:\チーム制作3D\2年後期1\3dgp.00\skinned_mesh_vs.cod
D:\チーム制作3D\2年後期1\3dgp.00\sprite_ps.cod
D:\チーム制作3D\2年後期1\3dgp.00\sprite_vs.cod
D:\チーム制作3D\2年後期1\3dgp.00\static_mesh_ps.cod
D:\チーム制作3D\2年後期1\3dgp.00\static_mesh_vs.cod
^geometric_primitive_ps.hlsl
^geometric_primitive_vs.hlsl
^skinned_mesh_ps.hlsl
^skinned_mesh_vs.hlsl
^sprite_ps.hlsl
^sprite_vs.hlsl
^static_mesh_ps.hlsl
^static_mesh_vs.hlsl
D:\チーム制作3D\2年後期1\3dgp.00\geometric_primitive_ps.cso
D:\チーム制作3D\2年後期1\3dgp.00\geometric_primitive_vs.cso
D:\チーム制作3D\2年後期1\3dgp.00\skinned_mesh_ps.cso
D:\チーム制作3D\2年後期1\3dgp.00\skinned_mesh_vs.cso
D:\チーム制作3D\2年後期1\3dgp.00\sprite_ps.cso
D:\チーム制作3D\2年後期1\3dgp.00\sprite_vs.cso
D:\チーム制作3D\2年後期1\3dgp.00\static_mesh_ps.cso
D:\チーム制作3D\2年後期1\3dgp.00\static_mesh_vs.cso
D:\チーム制作3D\2年後期1\3dgp.00\geometric_primitive_ps.cod
D:\チーム制作3D\2年後期1\3dgp.00\geometric_primitive_vs.cod
D:\チーム制作3D\2年後期1\3dgp.00\skinned_mesh_ps.cod
D:\チーム制作3D\2年後期1\3dgp.00\skinned_mesh_vs.cod
D:\チーム制作3D\2年後期1\3dgp.00\sprite_ps.cod
D:\チーム制作3D\2年後期1\3dgp.00\sprite_vs.cod
D:\チーム制作3D\2年後期1\3dgp.00\static_mesh_ps.cod
D:\チーム制作3D\2年後期1\3dgp.00\static_mesh_vs.cod
^geometric_primitive_ps.hlsl
^geometric_primitive_vs.hlsl
^skinned_mesh_ps.hlsl
^skinned_mesh_vs.hlsl
^sprite_ps.hlsl
^sprite_vs.hlsl
^static_mesh_ps.hlsl
^static_mesh_vs.hlsl
D:\チーム制作3D\2年後期1\3dgp.00\geometric_primitive_ps.cso
D:\チーム制作3D\2年後期1\3dgp.00\geometric_primitive_vs.cso
D:\チーム制作3D\2年後期1\3dgp.00\skinned_mesh_ps.cso
D:\チーム制作3D\2年後期1\3dgp.00\skinned_mesh_vs.cso
D:\チーム制作3D\2年後期1\3dgp.00\sprite_ps.cso
D:\チーム制作3D\2年後期1\3dgp.00\sprite_vs.cso
D:\チーム制作3D\2年後期1\3dgp.00\static_mesh_ps.cso
D:\チーム制作3D\2年後期1\3dgp.00\static_mesh_vs.cso
D:\チーム制作3D\2年後期1\3dgp.00\geometric_primitive_ps.cod
D:\チーム制作3D\2年後期1\3dgp.00\geometric_primitive_vs.cod
D:\チーム制作3D\2年後期1\3dgp.00\skinned_mesh_ps.cod
D:\チーム制作3D\2年後期1\3dgp.00\skinned_mesh_vs.cod
D:\チーム制作3D\2年後期1\3dgp.00\sprite_ps.cod
D:\チーム制作3D\2年後期1\3dgp.00\sprite_vs.cod
D:\チーム制作3D\2年後期1\3dgp.00\static_mesh_ps.cod
D:\チーム制作3D\2年後期1\3dgp.00\static_mesh_vs.cod
^geometric_primitive_ps.hlsl
^geometric_primitive_vs.hlsl
^skinned_mesh_ps.hlsl
^skinned_mesh_vs.hlsl
^sprite_ps.hlsl
^sprite_vs.hlsl
^static_mesh_ps.hlsl
^static_mesh_vs.hlsl
D:\チーム制作3D\2年後期1\3dgp.00\geometric_primitive_ps.cso
D:\チーム制作3D\2年後期1\3dgp.00\geometric_primitive_vs.cso
D:\チーム制作3D\2年後期1\3dgp.00\skinned_mesh_ps.cso
D:\チーム制作3D\2年後期1\3dgp.00\skinned_mesh_vs.cso
D:\チーム制作3D\2年後期1\3dgp.00\sprite_ps.cso
D:\チーム制作3D\2年後期1\3dgp.00\sprite_vs.cso
D:\チーム制作3D\2年後期1\3dgp.00\static_mesh_ps.cso
D:\チーム制作3D\2年後期1\3dgp.00\static_mesh_vs.cso
D:\チーム制作3D\2年後期1\3dgp.00\geometric_primitive_ps.cod
D:\チーム制作3D\2年後期1\3dgp.00\geometric_primitive_vs.cod
D:\チーム制作3D\2年後期1\3dgp.00\skinned_mesh_ps.cod
D:\チーム制作3D\2年後期1\3dgp.00\skinned_mesh_vs.cod
D:\チーム制作3D\2年後期1\3dgp.00\sprite_ps.cod
D:\チーム制作3D\2年後期1\3dgp.00\sprite_vs.cod
D:\チーム制作3D\2年後期1\3dgp.00\static_mesh_ps.cod
D:\チーム制作3D\2年後期1\3dgp.00\static_mesh_vs.cod
