^D:\描画エンジンプログラムⅠ\3DGP.00\BLENDSTATE.CPP|D:\描画エンジンプログラムⅠ\3DGP.00\FRAMEWORK.CPP|D:\描画エンジンプログラムⅠ\3DGP.00\GEOMETRIC_PRIMITIVE.CPP|D:\描画エンジンプログラムⅠ\3DGP.00\MAIN.CPP|D:\描画エンジンプログラムⅠ\3DGP.00\RESOURCEMANAGER.CPP|D:\描画エンジンプログラムⅠ\3DGP.00\SKINNED_MESH.CPP|D:\描画エンジンプログラムⅠ\3DGP.00\SPRITE.CPP|D:\描画エンジンプログラムⅠ\3DGP.00\STATIC_MESH.CPP
D:\描画エンジンプログラムⅠ\3DGP.00\DEBUG\VC140.PDB
D:\描画エンジンプログラムⅠ\3DGP.00\DEBUG\VC140.IDB
D:\描画エンジンプログラムⅠ\3DGP.00\DEBUG\BLENDSTATE.OBJ
D:\描画エンジンプログラムⅠ\3DGP.00\DEBUG\GEOMETRIC_PRIMITIVE.OBJ
D:\描画エンジンプログラムⅠ\3DGP.00\DEBUG\MAIN.OBJ
D:\描画エンジンプログラムⅠ\3DGP.00\DEBUG\FRAMEWORK.OBJ
D:\描画エンジンプログラムⅠ\3DGP.00\DEBUG\RESOURCEMANAGER.OBJ
D:\描画エンジンプログラムⅠ\3DGP.00\DEBUG\SKINNED_MESH.OBJ
D:\描画エンジンプログラムⅠ\3DGP.00\DEBUG\SPRITE.OBJ
D:\描画エンジンプログラムⅠ\3DGP.00\DEBUG\STATIC_MESH.OBJ
^D:\描画エンジンプログラムⅠ\3DGP.00\BLENDSTATE.CPP
D:\描画エンジンプログラムⅠ\3DGP.00\DEBUG\VC140.PDB
^D:\描画エンジンプログラムⅠ\3DGP.00\GEOMETRIC_PRIMITIVE.CPP
D:\描画エンジンプログラムⅠ\3DGP.00\DEBUG\VC140.PDB
^D:\描画エンジンプログラムⅠ\3DGP.00\MAIN.CPP
D:\描画エンジンプログラムⅠ\3DGP.00\DEBUG\VC140.PDB
^D:\描画エンジンプログラムⅠ\3DGP.00\FRAMEWORK.CPP
D:\描画エンジンプログラムⅠ\3DGP.00\DEBUG\VC140.PDB
^D:\描画エンジンプログラムⅠ\3DGP.00\RESOURCEMANAGER.CPP
D:\描画エンジンプログラムⅠ\3DGP.00\DEBUG\VC140.PDB
^D:\描画エンジンプログラムⅠ\3DGP.00\SKINNED_MESH.CPP
D:\描画エンジンプログラムⅠ\3DGP.00\DEBUG\VC140.PDB
^D:\描画エンジンプログラムⅠ\3DGP.00\SPRITE.CPP
D:\描画エンジンプログラムⅠ\3DGP.00\DEBUG\VC140.PDB
^D:\描画エンジンプログラムⅠ\3DGP.00\STATIC_MESH.CPP
D:\描画エンジンプログラムⅠ\3DGP.00\DEBUG\VC140.PDB
^D:\チーム制作3D\2年後期1\3DGP.00\BLENDSTATE.CPP|D:\チーム制作3D\2年後期1\3DGP.00\FRAMEWORK.CPP|D:\チーム制作3D\2年後期1\3DGP.00\GEOMETRIC_PRIMITIVE.CPP|D:\チーム制作3D\2年後期1\3DGP.00\IMGUI\IMGUI.CPP|D:\チーム制作3D\2年後期1\3DGP.00\IMGUI\IMGUI_DEMO.CPP|D:\チーム制作3D\2年後期1\3DGP.00\IMGUI\IMGUI_DRAW.CPP|D:\チーム制作3D\2年後期1\3DGP.00\IMGUI\IMGUI_IMPL_DX11.CPP|D:\チーム制作3D\2年後期1\3DGP.00\IMGUI\IMGUI_IMPL_WIN32.CPP|D:\チーム制作3D\2年後期1\3DGP.00\IMGUI\IMGUI_WIDGETS.CPP|D:\チーム制作3D\2年後期1\3DGP.00\MAIN.CPP|D:\チーム制作3D\2年後期1\3DGP.00\RESOURCEMANAGER.CPP|D:\チーム制作3D\2年後期1\3DGP.00\SKINNED_MESH.CPP|D:\チーム制作3D\2年後期1\3DGP.00\SPRITE.CPP|D:\チーム制作3D\2年後期1\3DGP.00\STATIC_MESH.CPP
D:\チーム制作3D\2年後期1\3DGP.00\DEBUG\VC140.PDB
D:\チーム制作3D\2年後期1\3DGP.00\DEBUG\VC140.IDB
D:\チーム制作3D\2年後期1\3DGP.00\DEBUG\BLENDSTATE.OBJ
D:\チーム制作3D\2年後期1\3DGP.00\DEBUG\GEOMETRIC_PRIMITIVE.OBJ
D:\チーム制作3D\2年後期1\3DGP.00\DEBUG\IMGUI.OBJ
D:\チーム制作3D\2年後期1\3DGP.00\DEBUG\IMGUI_DEMO.OBJ
D:\チーム制作3D\2年後期1\3DGP.00\DEBUG\IMGUI_DRAW.OBJ
D:\チーム制作3D\2年後期1\3DGP.00\DEBUG\IMGUI_IMPL_DX11.OBJ
D:\チーム制作3D\2年後期1\3DGP.00\DEBUG\IMGUI_IMPL_WIN32.OBJ
D:\チーム制作3D\2年後期1\3DGP.00\DEBUG\IMGUI_WIDGETS.OBJ
D:\チーム制作3D\2年後期1\3DGP.00\DEBUG\MAIN.OBJ
D:\チーム制作3D\2年後期1\3DGP.00\DEBUG\FRAMEWORK.OBJ
D:\チーム制作3D\2年後期1\3DGP.00\DEBUG\RESOURCEMANAGER.OBJ
D:\チーム制作3D\2年後期1\3DGP.00\DEBUG\SKINNED_MESH.OBJ
D:\チーム制作3D\2年後期1\3DGP.00\DEBUG\SPRITE.OBJ
D:\チーム制作3D\2年後期1\3DGP.00\DEBUG\STATIC_MESH.OBJ
^D:\チーム制作3D\2年後期1\3DGP.00\BLENDSTATE.CPP
D:\チーム制作3D\2年後期1\3DGP.00\DEBUG\VC140.PDB
^D:\チーム制作3D\2年後期1\3DGP.00\GEOMETRIC_PRIMITIVE.CPP
D:\チーム制作3D\2年後期1\3DGP.00\DEBUG\VC140.PDB
^D:\チーム制作3D\2年後期1\3DGP.00\IMGUI\IMGUI.CPP
D:\チーム制作3D\2年後期1\3DGP.00\DEBUG\VC140.PDB
^D:\チーム制作3D\2年後期1\3DGP.00\IMGUI\IMGUI_DEMO.CPP
D:\チーム制作3D\2年後期1\3DGP.00\DEBUG\VC140.PDB
^D:\チーム制作3D\2年後期1\3DGP.00\IMGUI\IMGUI_DRAW.CPP
D:\チーム制作3D\2年後期1\3DGP.00\DEBUG\VC140.PDB
^D:\チーム制作3D\2年後期1\3DGP.00\IMGUI\IMGUI_IMPL_DX11.CPP
D:\チーム制作3D\2年後期1\3DGP.00\DEBUG\VC140.PDB
^D:\チーム制作3D\2年後期1\3DGP.00\IMGUI\IMGUI_IMPL_WIN32.CPP
D:\チーム制作3D\2年後期1\3DGP.00\DEBUG\VC140.PDB
^D:\チーム制作3D\2年後期1\3DGP.00\IMGUI\IMGUI_WIDGETS.CPP
D:\チーム制作3D\2年後期1\3DGP.00\DEBUG\VC140.PDB
^D:\チーム制作3D\2年後期1\3DGP.00\MAIN.CPP
D:\チーム制作3D\2年後期1\3DGP.00\DEBUG\VC140.PDB
^D:\チーム制作3D\2年後期1\3DGP.00\FRAMEWORK.CPP
D:\チーム制作3D\2年後期1\3DGP.00\DEBUG\VC140.PDB
^D:\チーム制作3D\2年後期1\3DGP.00\RESOURCEMANAGER.CPP
D:\チーム制作3D\2年後期1\3DGP.00\DEBUG\VC140.PDB
^D:\チーム制作3D\2年後期1\3DGP.00\SKINNED_MESH.CPP
D:\チーム制作3D\2年後期1\3DGP.00\DEBUG\VC140.PDB
^D:\チーム制作3D\2年後期1\3DGP.00\SPRITE.CPP
D:\チーム制作3D\2年後期1\3DGP.00\DEBUG\VC140.PDB
^D:\チーム制作3D\2年後期1\3DGP.00\STATIC_MESH.CPP
D:\チーム制作3D\2年後期1\3DGP.00\DEBUG\VC140.PDB
