^D:\描画エンジンプログラムⅠ\3DGP.00\GEOMETRIC_PRIMITIVE_PS.HLSL
C:\WINDOWS\GLOBALIZATION\SORTING\SORTDEFAULT.NLS
C:\PROGRAM FILES (X86)\WINDOWS KITS\8.1\BIN\X86\FXC.EXE
D:\描画エンジンプログラムⅠ\3DGP.00\GEOMETRIC_PRIMITIVE.HLSLI
^D:\描画エンジンプログラムⅠ\3DGP.00\GEOMETRIC_PRIMITIVE_VS.HLSL
C:\WINDOWS\GLOBALIZATION\SORTING\SORTDEFAULT.NLS
C:\PROGRAM FILES (X86)\WINDOWS KITS\8.1\BIN\X86\FXC.EXE
D:\描画エンジンプログラムⅠ\3DGP.00\GEOMETRIC_PRIMITIVE.HLSLI
^D:\描画エンジンプログラムⅠ\3DGP.00\SKINNED_MESH_PS.HLSL
C:\WINDOWS\GLOBALIZATION\SORTING\SORTDEFAULT.NLS
C:\PROGRAM FILES (X86)\WINDOWS KITS\8.1\BIN\X86\FXC.EXE
D:\描画エンジンプログラムⅠ\3DGP.00\SKINNED_MESH.HLSLI
^D:\描画エンジンプログラムⅠ\3DGP.00\SKINNED_MESH_VS.HLSL
C:\WINDOWS\GLOBALIZATION\SORTING\SORTDEFAULT.NLS
C:\PROGRAM FILES (X86)\WINDOWS KITS\8.1\BIN\X86\FXC.EXE
D:\描画エンジンプログラムⅠ\3DGP.00\SKINNED_MESH.HLSLI
^D:\描画エンジンプログラムⅠ\3DGP.00\SPRITE_PS.HLSL
C:\WINDOWS\GLOBALIZATION\SORTING\SORTDEFAULT.NLS
C:\PROGRAM FILES (X86)\WINDOWS KITS\8.1\BIN\X86\FXC.EXE
D:\描画エンジンプログラムⅠ\3DGP.00\SPRITE.HLSLI
^D:\描画エンジンプログラムⅠ\3DGP.00\SPRITE_VS.HLSL
C:\WINDOWS\GLOBALIZATION\SORTING\SORTDEFAULT.NLS
C:\PROGRAM FILES (X86)\WINDOWS KITS\8.1\BIN\X86\FXC.EXE
D:\描画エンジンプログラムⅠ\3DGP.00\SPRITE.HLSLI
^D:\描画エンジンプログラムⅠ\3DGP.00\STATIC_MESH_PS.HLSL
C:\WINDOWS\GLOBALIZATION\SORTING\SORTDEFAULT.NLS
C:\PROGRAM FILES (X86)\WINDOWS KITS\8.1\BIN\X86\FXC.EXE
D:\描画エンジンプログラムⅠ\3DGP.00\STATIC_MESH.HLSLI
^D:\描画エンジンプログラムⅠ\3DGP.00\STATIC_MESH_VS.HLSL
C:\WINDOWS\GLOBALIZATION\SORTING\SORTDEFAULT.NLS
C:\PROGRAM FILES (X86)\WINDOWS KITS\8.1\BIN\X86\FXC.EXE
D:\描画エンジンプログラムⅠ\3DGP.00\STATIC_MESH.HLSLI
^D:\チーム制作3D\2年後期1\3DGP.00\GEOMETRIC_PRIMITIVE_PS.HLSL
C:\WINDOWS\GLOBALIZATION\SORTING\SORTDEFAULT.NLS
C:\PROGRAM FILES (X86)\WINDOWS KITS\8.1\BIN\X86\FXC.EXE
D:\チーム制作3D\2年後期1\3DGP.00\GEOMETRIC_PRIMITIVE.HLSLI
^D:\チーム制作3D\2年後期1\3DGP.00\GEOMETRIC_PRIMITIVE_VS.HLSL
C:\WINDOWS\GLOBALIZATION\SORTING\SORTDEFAULT.NLS
C:\PROGRAM FILES (X86)\WINDOWS KITS\8.1\BIN\X86\FXC.EXE
D:\チーム制作3D\2年後期1\3DGP.00\GEOMETRIC_PRIMITIVE.HLSLI
^D:\チーム制作3D\2年後期1\3DGP.00\SKINNED_MESH_PS.HLSL
C:\WINDOWS\GLOBALIZATION\SORTING\SORTDEFAULT.NLS
C:\PROGRAM FILES (X86)\WINDOWS KITS\8.1\BIN\X86\FXC.EXE
D:\チーム制作3D\2年後期1\3DGP.00\SKINNED_MESH.HLSLI
^D:\チーム制作3D\2年後期1\3DGP.00\SKINNED_MESH_VS.HLSL
C:\WINDOWS\GLOBALIZATION\SORTING\SORTDEFAULT.NLS
C:\PROGRAM FILES (X86)\WINDOWS KITS\8.1\BIN\X86\FXC.EXE
D:\チーム制作3D\2年後期1\3DGP.00\SKINNED_MESH.HLSLI
^D:\チーム制作3D\2年後期1\3DGP.00\SPRITE_PS.HLSL
C:\WINDOWS\GLOBALIZATION\SORTING\SORTDEFAULT.NLS
C:\PROGRAM FILES (X86)\WINDOWS KITS\8.1\BIN\X86\FXC.EXE
D:\チーム制作3D\2年後期1\3DGP.00\SPRITE.HLSLI
^D:\チーム制作3D\2年後期1\3DGP.00\SPRITE_VS.HLSL
C:\WINDOWS\GLOBALIZATION\SORTING\SORTDEFAULT.NLS
C:\PROGRAM FILES (X86)\WINDOWS KITS\8.1\BIN\X86\FXC.EXE
D:\チーム制作3D\2年後期1\3DGP.00\SPRITE.HLSLI
^D:\チーム制作3D\2年後期1\3DGP.00\STATIC_MESH_PS.HLSL
C:\WINDOWS\GLOBALIZATION\SORTING\SORTDEFAULT.NLS
C:\PROGRAM FILES (X86)\WINDOWS KITS\8.1\BIN\X86\FXC.EXE
D:\チーム制作3D\2年後期1\3DGP.00\STATIC_MESH.HLSLI
^D:\チーム制作3D\2年後期1\3DGP.00\STATIC_MESH_VS.HLSL
C:\WINDOWS\GLOBALIZATION\SORTING\SORTDEFAULT.NLS
C:\PROGRAM FILES (X86)\WINDOWS KITS\8.1\BIN\X86\FXC.EXE
D:\チーム制作3D\2年後期1\3DGP.00\STATIC_MESH.HLSLI
